…
We expect the video type that has highest likes and comments proportion
is the same type, also it has high number of viewers.

``` r
USvideos %>%
  count(category_id, views, likes, comment_count) %>%
  group_by(category_id) %>%
  mutate(prop_like = likes/views, prop_comment = comment_count/views) %>%
  select(prop_like, prop_comment)
```

    ## Adding missing grouping variables: `category_id`

    ## # A tibble: 10,001 x 3
    ## # Groups:   category_id [17]
    ##    category_id prop_like prop_comment
    ##          <dbl>     <dbl>        <dbl>
    ##  1           1   0.00772     0.00122 
    ##  2           1   0.00769     0.00105 
    ##  3           1   0.00765     0.000956
    ##  4           1   0.00781     0.000901
    ##  5           1   0.00749     0.000864
    ##  6           1   0.00778     0.000834
    ##  7           1   0.0201      0.00926 
    ##  8           1   0.00391     0.000586
    ##  9           1   0.00376     0.000564
    ## 10           1   0.00267     0.000667
    ## # … with 9,991 more rows
