Youtube
…
---

# Data Cleaning

- We had duplicate Youtube videos in separate rows so we merged the duplicate rows into one single row and also combined the views, likes and comments together.

- This allows for us to rank the with accuracy because it adds up the total of the duplicate rows and gives us total values. 

---

# Most Viewed

```
## # A tibble: 1,268 x 2
## # Groups:   title, views [1,268]
##    title                                                                   views
##    <chr>                                                                   <dbl>
##  1 Luis Fonsi, Demi Lovato - Échame La Culpa                              1.02e8
##  2 Marvel Studios' Avengers: Infinity War Official Trailer                9.19e7
##  3 YouTube Rewind: The Shape of  | #YouTubeRewind                         5.26e7
##  4 Ed Sheeran - Perfect (Official Music Video)                            4.34e7
##  5 BTS (방탄소년단) 'MIC Drop (Steve Aoki Remix)' Official MV             3.69e7
##  6 Incredibles 2 Official Teaser Trailer                                  3.62e7
##  7 Ed Sheeran - Perfect Duet (with Beyoncé) [Official Audio]              3.61e7
##  8 Eminem - Walk On Water (Audio) ft. Beyoncé                             2.64e7
##  9 42 HOLY GRAIL HACKS THAT WILL SAVE YOU A FORTUNE                       2.62e7
## 10 Demi Lovato - Tell Me You Love Me                                      2.61e7
## 11 P!nk - Beautiful Trauma (Official Video)                               2.15e7
## 12 Selena Gomez, Marshmello - Wolves                                      2.08e7
## 13 Jurassic World: Fallen Kingdom - Official Trailer [HD]                 1.82e7
## 14 Jennifer Lopez - Amor, Amor, Amor (Official Video) ft. Wisin           1.77e7
## 15 RAMPAGE - OFFICIAL TRAILER 1 [HD]                                      1.51e7
## 16 G-Eazy & Halsey - Him & I (Official Video)                             1.49e7
## 17 Stranger Things Cast Answer the Web's Most Searched Questions | WIR…   1.30e7
## # … with 1,251 more rows
```
…
